{
  "id": "swade",
  "name": "swade",
  "title": "Savage Worlds Adventure Edition",
  "description": "<p>Published by <a href=\"https://peginc.com\">Pinnacle Entertainment Group, Inc.</a></p><p>A comprehensive game system for running <em>Savage Worlds Adventure Edition<em>.<br><p>Any time. Any place. <em>Savage Worlds</em>.</p>",
  "version": "2.0.2",
  "minimumCoreVersion": 10,
  "compatibleCoreVersion": 10,
  "compatibility": {
    "minimum": 10,
    "verified": 10,
    "maximum": 10
  },
  "authors": [
    {
      "name": "FloRad",
      "url": "https://gitlab.com/florad92",
      "discord": "FloRadical#2142"
    }
  ],
  "esmodules": ["swade.js"],
  "styles": ["swade.css"],
  "packs": [
    {
      "name": "skills",
      "label": "Basic Skills",
      "system": "swade",
      "path": "packs/skills.db",
      "type": "Item",
      "private": false
    },
    {
      "name": "edges",
      "label": "Basic Edges",
      "system": "swade",
      "path": "packs/edges.db",
      "type": "Item",
      "private": false
    },
    {
      "name": "hindrances",
      "label": "Basic Hindrances",
      "system": "swade",
      "path": "packs/hindrances.db",
      "type": "Item",
      "private": false
    },
    {
      "name": "powers",
      "label": "Basic Powers",
      "system": "swade",
      "path": "packs/powers.db",
      "type": "Item",
      "private": false
    }
  ],
  "languages": [
    {
      "lang": "en",
      "name": "English",
      "path": "lang/en.json"
    },
    {
      "lang": "de",
      "name": "Deutsch",
      "path": "lang/de.json"
    }
  ],
  "socket": true,
  "gridDistance": 1,
  "gridUnits": "in",
  "manifest": "https://gitlab.com/api/v4/projects/16269883/packages/generic/swade/latest/system.json",
  "download": "This is auto replaced",
  "url": "https://gitlab.com/peginc/swade",
  "readme": "https://gitlab.com/peginc/swade/-/wikis/home",
  "bugs": "https://gitlab.com/peginc/swade/-/issues",
  "changelog": "https://gitlab.com/peginc/swade/-/releases",
  "license": "https://gitlab.com/peginc/swade/-/blob/master/LICENSE.md"
}
